<?xml version="1.0" encoding="utf-8"?>
<!-- Generator: Adobe Illustrator 22.1.0, SVG Export Plug-In . SVG Version: 6.00 Build 0)  -->
<svg version="1.1" id="Blue" xmlns="http://www.w3.org/2000/svg" xmlns:xlink="http://www.w3.org/1999/xlink" x="0px" y="0px"
	 viewBox="0 0 204.8 151.2" style="enable-background:new 0 0 204.8 151.2;" xml:space="preserve">
<g>
	<g>
		<rect x="24" y="0" width="12" height="12"/>
		<rect x="59.9" y="24" width="12" height="12"/>
		<rect x="47.9" y="35.9" width="12" height="12"/>
		<rect x="24" y="24" width="12" height="12"/>
		<rect y="0" width="12" height="12"/>
		<rect x="71.9" y="95.8" width="12" height="12"/>
		<rect x="36" y="47.9" width="12" height="12"/>
		<rect x="47.9" y="83.8" width="12" height="12"/>
		<g>
			<path d="M160.5,0c-1.9,7.5-4.2,15.6-6.8,24.3s-5.3,17.5-8.1,26.4s-5.6,17.6-8.5,26s-5.6,16.1-8.1,23c-2.7-6.9-5.4-14.6-8.2-23
				s-5.6-17.1-8.4-26c-2.8-8.9-5.5-17.7-8.1-26.4c-2.6-8.7-4.9-16.8-6.8-24.3H47.8v12v12h12V12h12v12h12v12H71.9v12h-12v23.9h12V60
				v-0.1h12v-12h12v12h-12v12h-12v12h12v7.5v4.4h12v12h-12v12h12c5,11.3,10,21.8,14.9,31.4h35.5c9.8-19.2,19.7-41.6,29.8-67.2
				c10.1-25.7,19.6-53.6,28.7-83.9L160.5,0L160.5,0z"/>
		</g>
	</g>
</g>
</svg>
